Stat 433 Week 3
…
noCancel %>% 
  group_by(hour, month) %>% 
  summarise(
    delay = mean(arr_delay, na.rm = TRUE),
      ) 

## `summarise()` has grouped output by 'hour'. You can override using the `.groups` argument.

## # A tibble: 228 x 3
## # Groups:   hour [19]
##     hour month    delay
##    <dbl> <int>    <dbl>
##  1     5     1  -0.146 
##  2     5     2   0.0360
##  3     5     3  -6.09  
##  4     5     4  -0.0545
##  5     5     5  -9.48  
##  6     5     6  -5.35  
##  7     5     7  -2.62  
##  8     5     8  -5.70  
##  9     5     9 -13.5   
## 10     5    10  -8.68  
## # ... with 218 more rows
…
